Environmental Quality
…
# Summarize  data by Country and Region
summary_by_country_region <- air_quality_data %>%
  group_by(Country, Region) %>%
  summarize(
    AverageAirQuality = mean(AirQuality, na.rm = TRUE),
    AverageWaterPollution = mean(WaterPollution, na.rm = TRUE),
    .groups = 'drop'  # drop the grouping structure after summarizing
  )

# View the summary tibble
summary_by_country_region

# A tibble: 1,254 × 4
   Country        Region            AverageAirQuality AverageWaterPollution
   <chr>          <chr>                         <dbl>                 <dbl>
 1 " Afghanistan" " Balkh"                       11.1                  83.3
 2 " Afghanistan" " Farah"                      100                     0  
 3 " Afghanistan" " Faryab"                      50                    50  
 4 " Afghanistan" " Herat"                       43.8                  31.2
 5 " Afghanistan" " Kabul"                       18.4                  81.1
 6 " Afghanistan" " Kandahar"                     0                    75  
 7 " Albania"     " Diber County"               100                    62.5
 8 " Albania"     " Durres County"               37.5                  62.5
 9 " Albania"     " Elbasan County"               0                    25  
10 " Albania"     " Fier County"                  0                    81.2
# ℹ 1,244 more rows
…
